{
    "development": {
        "port": 8080,
        "errorTemplate": true,
      "localBaseUrl": "https://b06e32f4.ngrok.io",

      "store": {
            "adapter": "jugglingdb",
            "type": "memory",
            "database": "store.db"
        }
    },
    "production": {
        "port": 8080,
        "errorTemplate": true,
        "localBaseUrl": "https://b06e32f4.ngrok.io",
        "store": {
          "adapter": "jugglingdb",
          "type": "postgres-atlassian",
          "url": "$PG_DB_URL",
        },
        "whitelist": [
            "*.jira-dev.com",
            "*.atlassian.net",
            "*.atlassian.com",
            "*.jira.com"
        ]
    },
    "product": "jira"
}
